<?xml version="1.0" encoding="UTF-8"?>
<svg width="1526px" height="827px" viewBox="0 0 1526 827" version="1.1" xmlns="http://www.w3.org/2000/svg" xmlns:xlink="http://www.w3.org/1999/xlink">
    <!-- Generator: Sketch 52.6 (67491) - http://www.bohemiancoding.com/sketch -->
    <title>42_digital_logo_dark_blue_sign_A</title>
    <desc>Created with Sketch.</desc>
    <defs>
        <polygon id="path-1" points="0.0490916169 0.978 133.76 0.978 133.76 117.94 0.0490916169 117.94"></polygon>
    </defs>
    <g id="Page-1" stroke="none" stroke-width="1" fill="none" fill-rule="evenodd">
        <g id="42_digital_logo_dark_blue_sign_A">
            <path d="M1016.29,327.936 C1020.68,352.528 1030.36,371.009 1053.2,378.02 C1080.45,385.933 1114.71,384.167 1131.42,362.21 C1137.56,354.296 1138.45,342.876 1135.79,333.21 C1131.42,318.286 1118.23,314.745 1091.87,309.505 C1069.01,304.214 1012.78,298.067 982.899,275.211 C959.177,256.748 946.87,221.606 959.177,182.956 C973.25,141.637 1015.42,123.189 1047.07,118.814 C1105.93,109.999 1153.39,131.988 1173.57,153.073 C1189.4,169.767 1199.95,196.13 1199.06,221.606 L1134.04,221.606 C1133.17,213.707 1132.29,205.795 1128.76,198.751 C1120.88,181.186 1102.4,170.633 1082.2,170.633 C1059.34,168.9 1035.64,175.041 1025.96,194.376 C1022.45,201.404 1022.45,213.707 1028.61,220.735 C1042.65,236.546 1069.9,237.429 1093.63,241.82 C1134.04,248.849 1177.98,255.881 1197.3,289.284 C1219.28,327.936 1206.98,371.876 1192.92,389.44 C1183.25,401.743 1171.83,413.163 1156.89,421.944 C1131.42,436.018 1088.36,441.292 1046.17,434.265 C1007.51,428.122 981.146,408.788 966.222,385.065 C954.802,366.602 947.774,350.79 947.774,327.936 L1016.29,327.936" id="Fill-1" fill="#1E274B"></path>
            <path d="M721.038,243.574 L831.776,243.574 C833.53,218.098 814.183,189.968 788.719,182.069 C764.982,175.041 740.389,179.432 720.171,196.13 C701.723,212.824 695.562,247.965 695.562,269.938 C696.449,311.241 704.344,340.237 728.066,357.804 C743.893,369.239 779.905,384.167 811.558,361.327 C825.614,350.79 831.776,336.718 834.397,326.165 L912.6,326.165 C910.846,350.79 887.119,390.308 863.397,407.905 C821.228,438.655 765.849,444.8 721.941,428.122 C627.916,392.96 612.964,303.327 620,249.736 C623.508,227.747 631.419,204.908 642.855,184.694 C664.803,149.548 696.449,124.955 740.389,117.911 C788.719,110.899 836.167,125.826 866.905,160.101 C884.499,180.319 901.209,213.707 907.338,240.937 C910.846,259.401 914.366,278.733 912.6,298.934 L721.038,298.934 L721.038,243.574" id="Fill-2" fill="#1E274B"></path>
            <g id="Group-6" fill="#1E274B">
                <path d="M1436.62,340.874 C1428.72,361.942 1406.76,374.245 1380.39,376.882 L1380.39,376.987 C1375.26,377.821 1369.36,378.616 1363.46,377.753 C1345.88,377.753 1330.95,368.97 1324.79,355.796 C1317.78,342.606 1322.17,329.436 1326.56,321.522 C1337.1,303.073 1355.56,299.554 1381.05,294.29 L1381.05,294.2 C1388.79,293.296 1397.34,291.583 1406.76,289.017 C1426.08,284.608 1430.49,281.104 1440.14,274.077 C1440.14,281.104 1441.02,331.186 1436.62,340.874 Z M1515.72,352.292 L1515.72,257.378 C1514.83,232.773 1514.83,208.18 1509.57,185.325 C1504.3,162.486 1484.08,124.687 1419.05,116.773 C1406.95,115.921 1393.99,115.909 1380.99,115.909 L1380.99,115.907 C1380.98,115.907 1380.98,115.907 1380.97,115.909 C1380.78,115.909 1380.58,115.907 1380.39,115.907 L1380.39,115.939 C1358.62,116.845 1336.01,120.359 1317.72,127.326 C1279.07,143.137 1259.72,180.932 1259.72,220.467 L1330,220.467 C1328.25,200.265 1343.21,181.817 1357.25,176.54 C1363.41,173.903 1372.19,172.135 1380.99,172.135 L1380.99,172.115 C1398.38,171.378 1415.69,175.8 1427.83,187.095 C1435.76,194.991 1438.39,205.543 1435.76,216.963 C1431.36,235.411 1411.16,241.552 1380.39,245.959 L1380.39,246.061 C1369.98,247.744 1357.91,248.633 1345.01,250.35 C1308.09,254.742 1255.37,273.19 1243.07,326.8 C1238.68,347.886 1242.19,386.552 1274.69,412.028 C1296.68,428.722 1327.45,436.632 1351.15,435.767 C1361.72,435.767 1372.24,434.882 1381.05,433.128 L1381.05,432.974 C1405.34,427.634 1424.5,416.296 1442.79,401.491 C1443.66,405.882 1448.05,422.575 1451.58,426.983 L1525.38,426.983 C1513.95,404.128 1515.72,370.741 1515.72,352.292 Z" id="Fill-3"></path>
                <path d="M306.914,147.402 C280.667,104.961 269.92,53.005 280.286,0.915 C274.224,0.759 268.187,0.818 262.18,1.066 C251.855,57.507 264.325,113.591 293.521,159.171 C297.729,154.969 302.211,151.048 306.914,147.402 Z M263.364,205.161 C263.775,204.094 264.205,203.04 264.642,201.988 C223.917,147.632 203.892,78.384 212.615,7.696 C206.275,9.151 200,10.829 193.803,12.724 C186.233,89.763 210.649,164.718 257.797,222.137 C259.392,216.34 261.246,210.667 263.364,205.161 Z M327.036,283.102 C335.068,288.14 343.39,292.8 351.994,297.058 L351.994,277.386 C343.449,272.774 335.214,267.732 327.315,262.288 C326.766,268.877 326.656,275.831 327.036,283.102 Z M282.97,170.985 C250.919,122.607 236.653,62.679 246.652,2.142 C240.419,2.757 234.231,3.596 228.092,4.633 C218.622,70.381 235.768,135.123 272.246,186.678 C275.451,181.176 279.037,175.936 282.97,170.985 Z M351.994,243.086 L358.232,243.086 C350.142,238.225 342.401,232.908 335.033,227.18 C332.958,232.7 331.189,238.709 329.824,245.165 C336.919,250.35 344.31,255.195 351.994,259.654 L351.994,243.086 Z M402.128,329.819 C374.682,322.86 349.076,312.315 325.667,298.833 C326.356,302.964 327.207,307.181 328.233,311.477 C329.352,315.251 330.675,318.827 332.129,322.27 C352.606,332.559 374.491,340.808 397.617,346.655 C437.088,356.64 476.739,358.796 514.925,354.143 C522.267,347.202 527.867,340.059 531.989,333.905 C490.163,341.798 446.03,340.954 402.128,329.819 Z M546.988,266.995 C545.792,267.353 544.595,267.713 543.393,268.051 C544.068,274.891 544.355,280.864 544.449,285.659 C545.252,285.448 546.054,285.235 546.854,285.017 C547.094,278.985 547.147,272.975 546.988,266.995 Z M8.786,205.846 C8.674,206.273 8.552,206.695 8.444,207.122 C5.542,218.562 3.41,230.014 2.01,241.43 C61.907,382.497 183.604,495.655 342.166,539.132 C353.103,536.282 363.816,532.755 374.263,528.602 C368.537,527.362 362.809,526.056 357.085,524.602 C189.015,481.96 62.546,358.255 8.786,205.846 Z M0.032,270.393 C-0.212,286.38 0.958,302.19 3.448,317.681 C62.475,418.466 153.334,500.649 266.264,547.815 C281.348,548.231 296.278,547.345 310.947,545.313 C170.264,498.337 60.639,396.62 0.032,270.393 Z M27.579,154.674 C23.139,163.821 19.19,173.299 15.741,183.072 C64.214,338.936 190.46,466.895 360.436,509.882 C372.977,513.054 385.528,515.69 398.07,517.835 C406.533,513.501 414.769,508.735 422.735,503.55 C403.577,501.173 384.36,497.589 365.171,492.722 C193.6,449.188 68.406,315.233 27.579,154.674 Z M379.328,442.827 C350.771,432.97 327.59,419.288 309.183,403.095 C249.01,374.798 198.18,332.485 159.718,281.245 C157.982,287.852 154.403,293.694 149.543,298.202 C204.832,368.778 283.08,422.308 376.696,445.981 C409.714,454.327 442.825,458.474 475.472,458.817 C479.185,454.759 482.807,450.608 486.281,446.319 C455.591,454.946 419.375,456.655 379.328,442.827 Z M137.009,305.724 C133.383,306.974 129.508,307.684 125.459,307.684 C121.377,307.684 117.475,306.96 113.826,305.69 C173.85,388.155 261.977,450.974 368.565,477.933 C392.886,484.081 417.255,488.099 441.479,490.165 C448.129,484.997 454.563,479.54 460.727,473.765 C431.739,472.474 402.461,468.241 373.258,460.835 C275.667,436.075 194.222,379.837 137.009,305.724 Z M255.528,312.784 C253.473,303.733 252.156,294.595 251.509,285.474 C182.792,221.22 142.751,129.516 144.904,33.023 C138.572,36.401 132.382,40.037 126.334,43.897 C127.378,148.763 175.742,247.259 255.528,312.784 Z M99.446,248.191 C76.615,206.416 60.576,160.88 52.402,113.357 C47.085,120.654 42.106,128.247 37.497,136.122 C47.856,183.359 65.728,228.441 90.136,269.679 C90.727,261.403 94.145,253.928 99.446,248.191 Z M397.515,365.181 C380.978,360.985 365.047,355.614 349.775,349.192 C373.616,378.001 438.325,394.702 478.536,381.542 C483.965,379.763 488.965,377.595 493.639,375.192 C462.025,376.503 429.714,373.345 397.515,365.181 Z M461.785,243.086 C451.176,242.131 440.507,240.341 429.859,237.641 C400.305,230.146 373.913,216.489 351.688,198.405 C348.199,202.373 344.807,207.169 341.699,212.73 C356.918,224.898 373.909,235.164 392.396,243.086 L461.785,243.086 Z M466.136,94.531 C471.127,95.794 476.133,96.327 481.047,96.227 C474.186,88.218 466.848,80.592 459.065,73.391 C455.516,71.156 452.413,68.372 449.8,65.203 C441.697,58.363 433.166,51.97 424.226,46.071 C426.542,68.716 442.76,88.621 466.136,94.531 Z M458.004,126.479 C473.427,130.382 488.938,129.973 503.284,126.054 C499.998,120.959 496.544,115.974 492.926,111.102 C483.025,112.937 472.59,112.734 462.205,110.103 C428.237,101.5 406.055,69.915 408.084,36.198 C402.779,33.206 397.35,30.38 391.803,27.729 C385.3,72.086 413.479,115.223 458.004,126.479 Z M253.697,240.593 C200.807,180.659 172.326,100.653 178.568,17.894 C172.183,20.265 165.894,22.873 159.713,25.706 C155.514,115.634 190.004,201.803 251.212,264.179 C251.554,256.215 252.386,248.328 253.697,240.593 Z M541.297,252.332 C542.892,251.87 544.481,251.392 546.064,250.895 C545.56,245.052 544.876,239.24 544.001,233.475 C541.939,234.163 539.86,234.806 537.774,235.429 C539.235,241.283 540.391,246.952 541.297,252.332 Z M13.592,359.434 C24.692,393.249 42.285,424.614 65.289,451.679 C83.983,470.468 104.01,488.058 125.286,504.267 C149.56,519.915 176.741,531.96 206.283,539.458 C210.888,540.626 215.495,541.622 220.102,542.546 C135.771,498.915 65.443,435.339 13.592,359.434 Z M499.117,160.634 C506.186,159.501 513.1,157.746 519.794,155.427 C517.296,150.261 514.632,145.18 511.818,140.182 C502.405,143.206 492.511,144.911 482.4,145.155 C488.554,150.008 494.115,155.195 499.117,160.634 Z M125.459,236.766 C127.323,236.766 129.138,236.953 130.925,237.229 C103.894,189.317 86.627,135.85 81.033,80.069 C75.182,85.854 69.581,91.913 64.249,98.238 C71.304,148.207 87.369,196.12 111.15,239.797 C115.529,237.86 120.364,236.766 125.459,236.766 Z M280.53,370.688 C273.404,360.175 267.658,349.126 263.204,337.768 C172.739,271.673 116.258,166.617 112.186,53.551 C106.01,58.058 100.028,62.836 94.239,67.854 C103.23,192.359 172.96,306.081 280.53,370.688 Z M533.387,220.306 C535.994,219.531 538.582,218.698 541.15,217.813 C539.956,212.183 538.584,206.603 537.042,201.08 C533.807,202.236 530.52,203.266 527.211,204.228 C529.574,209.613 531.617,214.995 533.387,220.306 Z M453.65,208.943 C448.418,208.123 443.179,207.085 437.945,205.759 C417.619,200.604 399.088,191.962 382.793,180.661 C371.839,183.227 364.789,187.517 364.789,187.517 C364.453,187.696 364.111,187.909 363.771,188.104 C383.806,203.809 407.361,215.693 433.613,222.33 C443.165,224.746 452.732,226.38 462.253,227.279 C460.803,222.174 458.192,215.982 453.65,208.943 Z M334.997,130.248 C312.322,93.68 303.414,48.681 313.34,3.77 C307.463,2.9 301.595,2.245 295.743,1.76 C285.432,50.344 295.165,98.938 319.591,138.599 C324.554,135.524 329.698,132.73 334.997,130.248 Z M367.188,119.386 C345.722,88.727 336.789,49.579 345.517,10.538 C343.942,10.109 342.369,9.678 340.78,9.275 C336.718,8.243 332.652,7.328 328.589,6.489 C319.086,48.437 327.779,90.526 349.637,124.3 C355.375,122.31 361.24,120.67 367.188,119.386 Z M407.732,116.376 C382.693,92.536 370.122,56.961 376.882,21.144 C371.526,18.967 366.081,16.932 360.532,15.076 C352.596,52.016 362.53,88.997 384.775,116.662 C392.387,115.955 400.064,115.853 407.732,116.376 Z M520.059,189.795 C524.214,188.678 528.327,187.425 532.359,185.972 C530.512,180.581 528.491,175.259 526.316,170.002 C521.146,171.862 515.845,173.38 510.458,174.614 C514.014,179.577 517.202,184.658 520.059,189.795 Z" id="Fill-5"></path>
            </g>
            <path d="M354.439,298.325 C375.436,305.743 389.098,311.954 410.165,315.466 C435.168,319.634 497.355,324.472 543.382,320.036 C544.428,313.884 545.244,305.653 545.863,299.52 C500.436,302.341 462.256,302.272 413.853,299.46 C409.841,299.227 407.099,298.893 402.303,298.325 L354.439,298.325" id="Fill-7" fill="#1E274B"></path>
            <path d="M327.201,283.235 C335.232,288.272 343.555,292.931 352.158,297.19 L352.158,277.518 C343.614,272.907 335.379,267.864 327.48,262.421 C326.931,269.01 326.821,275.964 327.201,283.235" id="Fill-8" fill="#1E274B"></path>
            <path d="M437.375,188.829 C433.089,183.245 414.354,177.612 411.563,178.392 C412.094,181.292 427.985,189.394 437.375,188.829" id="Fill-9" fill="#1E274B"></path>
            <path d="M300.8,801.281 L253.605,801.281 C252.19,801.281 251.162,800.253 251.162,798.838 L251.162,712.422 C251.162,711.008 252.19,709.978 253.605,709.978 L300.8,709.978 C302.215,709.978 303.243,711.008 303.243,712.422 L303.243,723.609 C303.243,725.024 302.215,726.054 300.8,726.054 L268.522,726.054 L268.522,746.628 L298.228,746.628 C299.643,746.628 300.671,747.657 300.671,749.072 L300.671,760.26 C300.671,761.674 299.643,762.702 298.228,762.702 L268.522,762.702 L268.522,785.207 L300.8,785.207 C302.215,785.207 303.243,786.235 303.243,787.65 L303.243,798.838 C303.243,800.253 302.215,801.281 300.8,801.281" id="Fill-10" fill="#1E274B"></path>
            <path d="M365.097,801.281 L353.91,801.281 C352.495,801.281 351.466,800.253 351.466,798.838 L351.466,797.038 C347.48,799.867 341.822,802.567 334.749,802.567 C320.218,802.567 315.459,793.823 315.459,780.707 L315.459,739.428 C315.459,738.012 316.488,736.983 317.903,736.983 L330.377,736.983 C331.791,736.983 332.82,738.012 332.82,739.428 L332.82,778.134 C332.82,783.407 334.62,786.493 340.278,786.493 C343.365,786.493 346.965,785.336 350.18,783.793 L350.18,739.428 C350.18,738.012 351.209,736.983 352.624,736.983 L365.097,736.983 C366.512,736.983 367.541,738.012 367.541,739.428 L367.541,798.838 C367.541,800.253 366.512,801.281 365.097,801.281" id="Fill-11" fill="#1E274B"></path>
            <path d="M413.706,755.63 C413.706,755.63 412.934,755.502 412.42,755.502 C407.019,755.502 403.032,758.974 400.332,763.089 L400.332,798.838 C400.332,800.253 399.303,801.281 397.889,801.281 L385.415,801.281 C384,801.281 382.971,800.253 382.971,798.838 L382.971,739.428 C382.971,738.012 384,736.983 385.415,736.983 L396.603,736.983 C398.017,736.983 399.045,738.012 399.045,739.428 L399.045,744.314 C400.846,739.683 404.189,735.698 410.748,735.698 C412.163,735.698 413.577,735.955 413.577,735.955 C415.249,736.084 415.763,736.983 415.763,738.398 L415.763,753.315 C415.763,754.729 415.12,755.759 413.706,755.63" id="Fill-12" fill="#1E274B"></path>
            <path d="M458.326,761.03 C458.326,755.244 456.269,750.744 449.582,750.744 C442.895,750.744 440.838,755.244 440.838,761.03 L440.838,777.105 C440.838,782.892 442.895,787.392 449.582,787.392 C456.269,787.392 458.326,782.892 458.326,777.105 L458.326,761.03 Z M449.582,802.567 C433.122,802.567 423.477,794.208 423.477,776.849 L423.477,761.417 C423.477,744.057 433.122,735.698 449.582,735.698 C466.042,735.698 475.687,744.057 475.687,761.417 L475.687,776.849 C475.687,794.208 466.042,802.567 449.582,802.567 Z" id="Fill-13" fill="#1E274B"></path>
            <path d="M525.195,760.774 C525.195,754.729 522.88,751.129 516.708,751.129 C514.007,751.129 510.921,752.029 507.835,753.315 L507.835,786.493 L516.065,786.493 C522.751,786.493 525.195,782.25 525.195,776.205 L525.195,760.774 Z M517.351,801.281 C515.036,801.281 511.564,800.895 507.835,800.382 L507.835,823.271 C507.835,824.686 506.806,825.715 505.391,825.715 L492.917,825.715 C491.503,825.715 490.474,824.686 490.474,823.271 L490.474,739.428 C490.474,738.012 491.503,736.983 492.917,736.983 L504.105,736.983 C505.52,736.983 506.548,738.012 506.548,739.428 L506.548,740.198 C510.792,737.756 515.808,735.698 521.337,735.698 C535.868,735.698 542.555,744.828 542.555,758.845 L542.555,776.849 C542.555,791.509 534.454,801.281 517.351,801.281 Z" id="Fill-14" fill="#1E274B"></path>
            <path d="M592.708,761.932 C592.708,754.6 590.65,750.229 583.707,750.229 C576.376,750.229 574.19,754.987 574.062,763.731 L592.708,763.731 L592.708,761.932 Z M606.339,776.205 L574.319,776.205 C575.219,783.278 578.948,786.75 586.921,786.75 C593.865,786.75 603.767,785.079 603.767,785.079 C605.31,784.95 606.21,785.721 606.21,787.137 L606.21,798.195 C606.21,799.609 605.31,800.639 603.767,800.767 C603.767,800.767 594.38,802.567 585.892,802.567 C568.532,802.567 556.701,794.208 556.701,771.447 L556.701,766.046 C556.701,747.914 565.831,735.698 583.449,735.698 C601.452,735.698 608.782,747.914 608.782,762.96 L608.782,773.763 C608.782,775.177 607.753,776.205 606.339,776.205 Z" id="Fill-15" fill="#1E274B"></path>
            <path d="M654.434,775.177 L645.688,775.177 C639.516,775.177 637.073,777.748 637.073,781.992 C637.073,785.978 639.388,788.422 644.403,788.422 C647.618,788.422 651.09,787.265 654.434,785.721 L654.434,775.177 Z M669.351,801.281 L658.163,801.281 C656.748,801.281 655.719,800.253 655.719,798.838 L655.719,797.938 C651.476,800.51 646.203,802.567 640.159,802.567 C627.557,802.567 619.712,796.652 619.712,782.635 C619.712,769.518 628.328,762.702 642.86,762.702 C647.232,762.702 651.09,762.96 654.434,763.475 L654.434,760.131 C654.434,754.216 651.604,751.772 645.046,751.772 C638.102,751.772 627.3,753.959 627.3,753.959 C625.885,754.087 624.856,753.444 624.856,752.029 L624.856,741.1 C624.856,739.683 625.885,738.784 627.3,738.526 C627.3,738.526 636.687,735.698 647.875,735.698 C666.779,735.698 671.794,744.185 671.794,760.131 L671.794,798.838 C671.794,800.253 670.765,801.281 669.351,801.281 Z" id="Fill-16" fill="#1E274B"></path>
            <path d="M736.862,801.281 L724.388,801.281 C722.974,801.281 721.945,800.253 721.945,798.838 L721.945,760.131 C721.945,754.858 720.145,751.772 714.487,751.772 C711.4,751.772 707.8,752.929 704.585,754.473 L704.585,798.838 C704.585,800.253 703.556,801.281 702.141,801.281 L689.667,801.281 C688.253,801.281 687.224,800.253 687.224,798.838 L687.224,739.428 C687.224,738.012 688.253,736.983 689.667,736.983 L700.855,736.983 C702.27,736.983 703.298,738.012 703.298,739.428 L703.298,741.226 C707.285,738.398 712.943,735.698 720.016,735.698 C734.547,735.698 739.305,744.442 739.305,757.559 L739.305,798.838 C739.305,800.253 738.277,801.281 736.862,801.281" id="Fill-17" fill="#1E274B"></path>
            <path d="M814.919,802.567 C804.76,802.567 791.9,799.738 791.9,799.738 C790.485,799.609 789.457,798.71 789.457,797.295 L789.457,785.594 C789.457,784.178 790.485,783.407 792.029,783.664 C792.029,783.664 806.561,786.493 813.89,786.493 C823.663,786.493 827.393,783.407 827.393,775.948 L827.393,773.376 C827.393,767.718 823.021,765.532 817.361,763.603 L806.432,760.002 C797.301,757.045 790.1,750.872 790.1,737.37 L790.1,734.155 C790.1,715.894 803.346,708.692 819.42,708.692 C829.321,708.692 841.023,711.008 841.023,711.008 C842.438,711.136 843.467,712.036 843.467,713.45 L843.467,724.767 C843.467,726.182 842.566,726.953 841.023,726.824 C841.023,726.824 828.036,724.767 819.677,724.767 C810.804,724.767 807.46,727.982 807.46,734.155 L807.46,736.084 C807.46,740.327 810.546,742.642 815.048,744.185 L825.978,747.786 C835.751,751.001 844.752,756.143 844.752,772.091 L844.752,775.948 C844.752,796.009 834.723,802.567 814.919,802.567" id="Fill-18" fill="#1E274B"></path>
            <path d="M894.26,760.774 C894.26,754.729 891.945,751.129 885.772,751.129 C883.072,751.129 879.986,752.029 876.899,753.315 L876.899,786.493 L885.13,786.493 C891.817,786.493 894.26,782.25 894.26,776.205 L894.26,760.774 Z M886.416,801.281 C884.101,801.281 880.629,800.895 876.899,800.382 L876.899,823.271 C876.899,824.686 875.87,825.715 874.456,825.715 L861.982,825.715 C860.568,825.715 859.539,824.686 859.539,823.271 L859.539,739.428 C859.539,738.012 860.568,736.983 861.982,736.983 L873.17,736.983 C874.585,736.983 875.614,738.012 875.614,739.428 L875.614,740.198 C879.857,737.756 884.873,735.698 890.402,735.698 C904.934,735.698 911.621,744.828 911.621,758.845 L911.621,776.849 C911.621,791.509 903.52,801.281 886.416,801.281 Z" id="Fill-19" fill="#1E274B"></path>
            <path d="M957.271,775.177 L948.528,775.177 C942.354,775.177 939.912,777.748 939.912,781.992 C939.912,785.978 942.228,788.422 947.241,788.422 C950.457,788.422 953.929,787.265 957.271,785.721 L957.271,775.177 Z M972.189,801.281 L961.002,801.281 C959.587,801.281 958.559,800.253 958.559,798.838 L958.559,797.938 C954.314,800.51 949.042,802.567 942.998,802.567 C930.396,802.567 922.551,796.652 922.551,782.635 C922.551,769.518 931.167,762.702 945.698,762.702 C950.071,762.702 953.929,762.96 957.271,763.475 L957.271,760.131 C957.271,754.216 954.443,751.772 947.885,751.772 C940.94,751.772 930.139,753.959 930.139,753.959 C928.725,754.087 927.695,753.444 927.695,752.029 L927.695,741.1 C927.695,739.683 928.725,738.784 930.139,738.526 C930.139,738.526 939.526,735.698 950.714,735.698 C969.617,735.698 974.633,744.185 974.633,760.131 L974.633,798.838 C974.633,800.253 973.604,801.281 972.189,801.281 Z" id="Fill-20" fill="#1E274B"></path>
            <path d="M1027.48,801.41 C1027.48,801.41 1021.31,802.567 1016.17,802.567 C999.707,802.567 990.063,794.208 990.063,776.849 L990.063,761.417 C990.063,744.057 999.707,735.698 1016.17,735.698 C1021.83,735.698 1027.48,736.854 1027.48,736.854 C1029.16,736.983 1029.93,738.012 1029.93,739.428 L1029.93,749.843 C1029.93,751.258 1028.9,752.029 1027.48,751.9 C1027.48,751.9 1021.83,751.129 1017.33,751.129 C1009.48,751.129 1007.42,755.502 1007.42,762.059 L1007.42,776.205 C1007.42,783.149 1009.74,787.137 1017.45,787.137 C1022.47,787.137 1027.48,786.364 1027.48,786.364 C1028.9,786.235 1029.93,787.008 1029.93,788.422 L1029.93,798.838 C1029.93,800.253 1029.16,801.281 1027.48,801.41" id="Fill-21" fill="#1E274B"></path>
            <path d="M1074.94,761.932 C1074.94,754.6 1072.88,750.229 1065.93,750.229 C1058.6,750.229 1056.42,754.987 1056.29,763.731 L1074.94,763.731 L1074.94,761.932 Z M1088.57,776.205 L1056.55,776.205 C1057.45,783.278 1061.18,786.75 1069.15,786.75 C1076.09,786.75 1085.99,785.079 1085.99,785.079 C1087.54,784.95 1088.44,785.721 1088.44,787.137 L1088.44,798.195 C1088.44,799.609 1087.54,800.639 1085.99,800.767 C1085.99,800.767 1076.61,802.567 1068.12,802.567 C1050.76,802.567 1038.93,794.208 1038.93,771.447 L1038.93,766.046 C1038.93,747.914 1048.06,735.698 1065.68,735.698 C1083.68,735.698 1091.01,747.914 1091.01,762.96 L1091.01,773.763 C1091.01,775.177 1089.98,776.205 1088.57,776.205 Z" id="Fill-22" fill="#1E274B"></path>
            <g id="Group-26" transform="translate(1136.000000, 709.000000)">
                <mask id="mask-2" fill="white">
                    <use xlink:href="#path-1"></use>
                </mask>
                <g id="Clip-24"></g>
                <path d="M37.05,23.74 L26.77,60.775 L47.21,60.775 L37.05,23.74 Z M72.03,92.281 L58.01,92.281 C56.6,92.281 55.7,91.253 55.31,89.838 L51.71,76.85 L22.26,76.85 L18.66,89.838 C18.28,91.253 17.38,92.281 15.96,92.281 L1.95,92.281 C0.53,92.281 -0.24,91.124 0.15,89.71 L25.61,3.422 C25.99,2.008 27.15,0.978 28.57,0.978 L45.41,0.978 C46.83,0.978 47.98,2.008 48.37,3.422 L73.83,89.71 C74.22,91.124 73.45,92.281 72.03,92.281 Z" id="Fill-23" fill="#1E274B" mask="url(#mask-2)"></path>
                <path d="M116.4,43.029 C113.05,42.515 109.97,42.129 108.17,42.129 C101.48,42.129 99.04,45.729 99.04,51.774 L99.04,65.919 C99.04,71.963 101.35,75.563 107.52,75.563 C110.22,75.563 113.31,74.664 116.4,73.378 L116.4,43.029 Z M108.42,118 C98.13,118 86.69,115.558 86.69,115.558 C85.15,115.429 84.25,114.4 84.25,112.985 L84.25,101.669 C84.25,100.254 85.15,99.612 86.69,99.739 C86.69,99.739 97.88,101.926 105.46,101.926 C114.08,101.926 116.4,98.196 116.4,90.352 L116.4,87.267 C112.41,89.453 107.78,90.996 102.89,90.996 C88.36,90.996 81.67,81.865 81.67,67.849 L81.67,51.131 C81.67,36.471 89.78,26.698 106.88,26.698 C118.07,26.698 131.31,29.913 131.31,29.913 C132.73,30.041 133.76,30.941 133.76,32.355 L133.76,90.352 C133.76,111.313 126.3,118 108.42,118 Z" id="Fill-25" fill="#1E274B" mask="url(#mask-2)"></path>
            </g>
            <path d="M1319.91,761.932 C1319.91,754.6 1317.85,750.229 1310.91,750.229 C1303.58,750.229 1301.39,754.987 1301.26,763.731 L1319.91,763.731 L1319.91,761.932 Z M1333.54,776.205 L1301.52,776.205 C1302.42,783.278 1306.15,786.75 1314.12,786.75 C1321.07,786.75 1330.97,785.079 1330.97,785.079 C1332.51,784.95 1333.41,785.721 1333.41,787.137 L1333.41,798.195 C1333.41,799.609 1332.51,800.639 1330.97,800.767 C1330.97,800.767 1321.58,802.567 1313.09,802.567 C1295.73,802.567 1283.9,794.208 1283.9,771.447 L1283.9,766.046 C1283.9,747.914 1293.03,735.698 1310.65,735.698 C1328.65,735.698 1335.98,747.914 1335.98,762.96 L1335.98,773.763 C1335.98,775.177 1334.95,776.205 1333.54,776.205 Z" id="Fill-27" fill="#1E274B"></path>
            <path d="M1399.77,801.281 L1387.29,801.281 C1385.88,801.281 1384.85,800.253 1384.85,798.838 L1384.85,760.131 C1384.85,754.858 1383.05,751.772 1377.39,751.772 C1374.31,751.772 1370.7,752.929 1367.49,754.473 L1367.49,798.838 C1367.49,800.253 1366.46,801.281 1365.05,801.281 L1352.57,801.281 C1351.16,801.281 1350.13,800.253 1350.13,798.838 L1350.13,739.428 C1350.13,738.012 1351.16,736.983 1352.57,736.983 L1363.76,736.983 C1365.17,736.983 1366.2,738.012 1366.2,739.428 L1366.2,741.226 C1370.19,738.398 1375.85,735.698 1382.92,735.698 C1397.45,735.698 1402.21,744.442 1402.21,757.559 L1402.21,798.838 C1402.21,800.253 1401.18,801.281 1399.77,801.281" id="Fill-28" fill="#1E274B"></path>
            <path d="M1454.42,801.41 C1454.42,801.41 1448.25,802.567 1443.1,802.567 C1426.64,802.567 1417,794.208 1417,776.849 L1417,761.417 C1417,744.057 1426.64,735.698 1443.1,735.698 C1448.76,735.698 1454.42,736.854 1454.42,736.854 C1456.09,736.983 1456.86,738.012 1456.86,739.428 L1456.86,749.843 C1456.86,751.258 1455.84,752.029 1454.42,751.9 C1454.42,751.9 1448.76,751.129 1444.26,751.129 C1436.42,751.129 1434.36,755.502 1434.36,762.059 L1434.36,776.205 C1434.36,783.149 1436.67,787.137 1444.39,787.137 C1449.41,787.137 1454.42,786.364 1454.42,786.364 C1455.84,786.235 1456.86,787.008 1456.86,788.422 L1456.86,798.838 C1456.86,800.253 1456.09,801.281 1454.42,801.41" id="Fill-29" fill="#1E274B"></path>
            <path d="M1494.28,823.4 C1493.9,824.686 1493,825.715 1491.58,825.715 L1477.7,825.715 C1476.28,825.715 1475.38,824.429 1475.77,823.143 L1482.84,802.309 L1462.78,739.428 C1462.39,738.012 1463.42,736.983 1464.84,736.983 L1478.47,736.983 C1479.88,736.983 1480.91,737.756 1481.3,739.17 L1492.23,774.791 L1504.31,739.299 C1504.7,738.012 1505.73,736.983 1507.14,736.983 L1520.77,736.983 C1522.19,736.983 1523.22,738.269 1522.83,739.555 L1494.28,823.4" id="Fill-30" fill="#1E274B"></path>
        </g>
    </g>
</svg>