<?xml version="1.0" encoding="UTF-8"?>
<svg width="896px" height="285px" viewBox="0 0 896 285" version="1.1" xmlns="http://www.w3.org/2000/svg" xmlns:xlink="http://www.w3.org/1999/xlink">
    <!-- Generator: Sketch 53.1 (72631) - https://sketchapp.com -->
    <title>Asset 1</title>
    <desc>Created with Sketch.</desc>
    <defs>
        <linearGradient x1="0%" y1="50%" x2="99.9959363%" y2="50%" id="linearGradient-1">
            <stop stop-color="#6262CC" stop-opacity="0" offset="8%"></stop>
            <stop stop-color="#6262CC" stop-opacity="0.85" offset="100%"></stop>
        </linearGradient>
        <linearGradient x1="0%" y1="50%" x2="100%" y2="50%" id="linearGradient-2">
            <stop stop-color="#6262CC" stop-opacity="0" offset="8%"></stop>
            <stop stop-color="#6262CC" stop-opacity="0.85" offset="100%"></stop>
        </linearGradient>
        <linearGradient x1="0%" y1="50%" x2="100%" y2="50%" id="linearGradient-3">
            <stop stop-color="#6262CC" stop-opacity="0" offset="8%"></stop>
            <stop stop-color="#6262CC" stop-opacity="0.85" offset="100%"></stop>
        </linearGradient>
        <linearGradient x1="0%" y1="50%" x2="99.9915512%" y2="50%" id="linearGradient-4">
            <stop stop-color="#272359" stop-opacity="0" offset="8%"></stop>
            <stop stop-color="#272359" stop-opacity="0.85" offset="100%"></stop>
        </linearGradient>
        <linearGradient x1="0%" y1="50%" x2="100.004373%" y2="50%" id="linearGradient-5">
            <stop stop-color="#272359" stop-opacity="0" offset="8%"></stop>
            <stop stop-color="#272359" stop-opacity="0.85" offset="100%"></stop>
        </linearGradient>
        <linearGradient x1="0%" y1="50%" x2="100%" y2="50%" id="linearGradient-6">
            <stop stop-color="#3F3177" stop-opacity="0" offset="8%"></stop>
            <stop stop-color="#3F3177" stop-opacity="0.85" offset="100%"></stop>
        </linearGradient>
        <linearGradient x1="0%" y1="50%" x2="100%" y2="50%" id="linearGradient-7">
            <stop stop-color="#9795F9" stop-opacity="0" offset="8%"></stop>
            <stop stop-color="#9795F9" stop-opacity="0.85" offset="100%"></stop>
        </linearGradient>
        <linearGradient x1="0%" y1="50%" x2="100.005468%" y2="50%" id="linearGradient-8">
            <stop stop-color="#9795F9" stop-opacity="0" offset="8%"></stop>
            <stop stop-color="#9795F9" stop-opacity="0.85" offset="100%"></stop>
        </linearGradient>
    </defs>
    <g id="Page-1" stroke="none" stroke-width="1" fill="none" fill-rule="evenodd">
        <g id="Desktop-HD-Copy-2" transform="translate(-330.000000, -370.000000)">
            <g id="Asset-1" transform="translate(292.000000, 370.000000)">
                <rect id="Rectangle" fill="url(#linearGradient-1)" x="0.54" y="250.64" width="246.08" height="33.42"></rect>
                <rect id="Rectangle" fill="url(#linearGradient-2)" x="309" y="83.55" width="154.18" height="33.42"></rect>
                <rect id="Rectangle" fill="url(#linearGradient-3)" x="78" y="125.32" width="184.69" height="33.42"></rect>
                <rect id="Rectangle" fill="url(#linearGradient-4)" x="341.38" y="250.64" width="118.36" height="33.42"></rect>
                <rect id="Rectangle" fill="url(#linearGradient-5)" x="188.4" y="0" width="228.7" height="33.42"></rect>
                <rect id="Rectangle" fill="url(#linearGradient-4)" x="408" y="167.09" width="118.36" height="33.42"></rect>
                <rect id="Rectangle" fill="url(#linearGradient-6)" x="205.17" y="208.87" width="171.41" height="33.42"></rect>
                <rect id="Rectangle" fill="url(#linearGradient-7)" x="60" y="41.77" width="118.36" height="33.42"></rect>
                <rect id="Rectangle" fill="url(#linearGradient-8)" x="489.97" y="41.77" width="182.88" height="33.42"></rect>
                <rect id="Rectangle" fill="#6262CC" x="857.35" y="41.77" width="33.36" height="33.42" rx="2.01"></rect>
                <rect id="Rectangle" fill="#6262CC" x="729.48" y="83.55" width="33.36" height="33.42" rx="2.01"></rect>
                <rect id="Rectangle" fill="#6262CC" x="857.35" y="83.55" width="33.36" height="33.42" rx="2.01"></rect>
                <rect id="Rectangle" fill="#6262CC" x="899.98" y="83.55" width="33.36" height="33.42" rx="2.01"></rect>
                <rect id="Rectangle" fill="#6262CC" x="729.48" y="208.87" width="33.36" height="33.42" rx="2.01"></rect>
                <rect id="Rectangle" fill="#6262CC" x="772.1" y="208.87" width="33.36" height="33.42" rx="2.01"></rect>
                <rect id="Rectangle" fill="#6262CC" x="686.86" y="167.09" width="33.36" height="33.42" rx="2.01"></rect>
                <rect id="Rectangle" fill="#6262CC" x="814.73" y="125.32" width="33.36" height="33.42" rx="2.01"></rect>
                <rect id="Rectangle" fill="#6262CC" x="558.98" y="250.64" width="33.36" height="33.42" rx="2.01"></rect>
                <rect id="Rectangle" fill="#E6E6E6" x="729.48" y="0" width="33.36" height="33.42" rx="2.01"></rect>
                <rect id="Rectangle" fill="#E6E6E6" x="814.73" y="0" width="33.36" height="33.42" rx="2.01"></rect>
                <rect id="Rectangle" fill="#E6E6E6" x="644.23" y="250.64" width="33.36" height="33.42" rx="2.01"></rect>
                <rect id="Rectangle" fill="#E6E6E6" x="686.86" y="250.64" width="33.36" height="33.42" rx="2.01"></rect>
                <rect id="Rectangle" fill="#E6E6E6" x="814.73" y="250.64" width="33.36" height="33.42" rx="2.01"></rect>
                <rect id="Rectangle" fill="#E6E6E6" x="899.98" y="0" width="33.36" height="33.42" rx="2.01"></rect>
                <rect id="Rectangle" fill="#E6E6E6" x="516.36" y="250.64" width="33.36" height="33.42" rx="2.01"></rect>
                <rect id="Rectangle" fill="#E6E6E6" x="899.98" y="250.64" width="33.36" height="33.42" rx="2.01"></rect>
                <rect id="Rectangle" fill="#3F3177" x="857.35" y="0" width="33.36" height="33.42" rx="2.01"></rect>
                <rect id="Rectangle" fill="#3F3177" x="814.73" y="41.77" width="33.36" height="33.42" rx="2.01"></rect>
                <rect id="Rectangle" fill="#3F3177" x="814.73" y="83.55" width="33.36" height="33.42" rx="2.01"></rect>
                <rect id="Rectangle" fill="#3F3177" x="729.48" y="41.77" width="33.36" height="33.42" rx="2.01"></rect>
                <rect id="Rectangle" fill="#3F3177" x="772.1" y="125.32" width="33.36" height="33.42" rx="2.01"></rect>
                <rect id="Rectangle" fill="#3F3177" x="686.86" y="125.32" width="33.36" height="33.42" rx="2.01"></rect>
                <rect id="Rectangle" fill="#3F3177" x="686.86" y="208.87" width="33.36" height="33.42" rx="2.01"></rect>
                <rect id="Rectangle" fill="#3F3177" x="857.35" y="167.09" width="33.36" height="33.42" rx="2.01"></rect>
                <rect id="Rectangle" fill="#3F3177" x="899.98" y="167.09" width="33.36" height="33.42" rx="2.01"></rect>
                <rect id="Rectangle" fill="#3F3177" x="857.35" y="208.87" width="33.36" height="33.42" rx="2.01"></rect>
                <rect id="Rectangle" fill="#3F3177" x="772.1" y="250.64" width="33.36" height="33.42" rx="2.01"></rect>
                <rect id="Rectangle" fill="#3F3177" x="729.48" y="250.64" width="33.36" height="33.42" rx="2.01"></rect>
                <rect id="Rectangle" fill="#3F3177" x="644.23" y="167.09" width="33.36" height="33.42" rx="2.01"></rect>
                <rect id="Rectangle" fill="#9795F9" x="772.1" y="83.55" width="33.36" height="33.42" rx="2.01"></rect>
                <rect id="Rectangle" fill="#9795F9" x="814.73" y="208.87" width="33.36" height="33.42" rx="2.01"></rect>
                <rect id="Rectangle" fill="#9795F9" x="772.1" y="41.77" width="33.36" height="33.42" rx="2.01"></rect>
                <rect id="Rectangle" fill="#9795F9" x="857.35" y="125.32" width="33.36" height="33.42" rx="2.01"></rect>
                <rect id="Rectangle" fill="#9795F9" x="601.61" y="250.64" width="33.36" height="33.42" rx="2.01"></rect>
                <rect id="Rectangle" fill="#9795F9" x="857.35" y="250.64" width="33.36" height="33.42" rx="2.01"></rect>
                <rect id="Rectangle" fill="#9795F9" x="899.98" y="41.77" width="33.36" height="33.42" rx="2.01"></rect>
                <rect id="Rectangle" fill="#9795F9" x="729.48" y="167.09" width="33.36" height="33.42" rx="2.01"></rect>
                <rect id="Rectangle" fill="#9795F9" x="644.23" y="208.87" width="33.36" height="33.42" rx="2.01"></rect>
                <rect id="Rectangle" fill="#272359" x="729.48" y="125.32" width="33.36" height="33.42" rx="2.01"></rect>
                <rect id="Rectangle" fill="#272359" x="814.73" y="167.09" width="33.36" height="33.42" rx="2.01"></rect>
                <rect id="Rectangle" fill="#272359" x="772.1" y="0" width="33.36" height="33.42" rx="2.01"></rect>
                <rect id="Rectangle" fill="#272359" x="686.86" y="83.55" width="33.36" height="33.42" rx="2.01"></rect>
                <rect id="Rectangle" fill="#272359" x="601.61" y="208.87" width="33.36" height="33.42" rx="2.01"></rect>
                <rect id="Rectangle" fill="#272359" x="899.98" y="208.87" width="33.36" height="33.42" rx="2.01"></rect>
                <rect id="Rectangle" fill="#272359" x="558.98" y="208.87" width="33.36" height="33.42" rx="2.01"></rect>
                <rect id="Rectangle" fill="#272359" x="601.61" y="167.09" width="33.36" height="33.42" rx="2.01"></rect>
                <rect id="Rectangle" fill="#272359" x="899.98" y="125.32" width="33.36" height="33.42" rx="2.01"></rect>
                <rect id="Rectangle" fill="#272359" x="772.1" y="167.09" width="33.36" height="33.42" rx="2.01"></rect>
                <rect id="Rectangle" fill="#272359" x="644.23" y="125.32" width="33.36" height="33.42" rx="2.01"></rect>
                <rect id="Rectangle" fill="#3F3177" x="347.96" y="208.87" width="33.36" height="33.42" rx="2.01"></rect>
                <rect id="Rectangle" fill="#272359" x="388.49" y="0" width="33.36" height="33.42" rx="2.01"></rect>
                <rect id="Rectangle" fill="#272359" x="431.11" y="250.64" width="33.36" height="33.42" rx="2.01"></rect>
                <rect id="Rectangle" fill="#9795F9" x="149.74" y="41.77" width="33.36" height="33.42" rx="2.01"></rect>
                <rect id="Rectangle" fill="#6262CC" x="217.99" y="250.64" width="33.36" height="33.42" rx="2.01"></rect>
                <rect id="Rectangle" fill="#272359" x="497.73" y="167.09" width="33.36" height="33.42" rx="2.01"></rect>
                <rect id="Rectangle" fill="#6262CC" x="234.07" y="125.32" width="33.36" height="33.42" rx="2.01"></rect>
                <rect id="Rectangle" fill="#9795F9" x="644.23" y="41.77" width="33.36" height="33.42" rx="2.01"></rect>
                <rect id="Rectangle" fill="#6262CC" x="434.56" y="83.55" width="33.36" height="33.42" rx="2.01"></rect>
            </g>
        </g>
    </g>
</svg>